1, Small Funghi, 9.0, Card, testasd
2, Medium Calzone & Medium Calzone, 28.0, Cash, asd
3, Large Capriciosa & Small Capriciosa, 18.0, Cash, aaa
4, Large Capriciosa & Small Capriciosa, 18.0, Cash, aaa
5, Large Capriciosa & Small Capriciosa, 18.0, Cash, aaaTEASRAET
6, Medium Funghi, 12.0, Cash, asd
7, Medium Funghi & Large Funghi, 27.0, Cash, Test
8, Small Funghi & Large Funghi, 24.0, Card, TTTT
9, Small Funghi & Medium Calzone, 23.0, Card, TTT
10, Small Funghi, 9.0, Card, No Comment
11, Small Funghi, 9.0, Card, No Comment
12, Small Funghi & Small Funghi, 18.0, Card, TTT
13, Small Funghi & Small Funghi & Small Funghi, 27.0, Card, TTT
14, Small Calzone & Small Calzone, 21.0, Cash, test
15, Small Calzone, 10.5, Card, test
16, Small Calzone, 10.5, Card, test
